1,bubble01tzpk,
2,bubble01q8pC,
3,bubble01WPno,
4,bubble01P2D5,
5,bubble01vhTG,
6,bubble01IxAi,
7,bubble01KPYp,
8,bubble016ic3,
9,bubble01Is9l,
10,bubble01hn6k,
11,bubble01mQag,
12,bubble01Olea,
13,bubble018btS,
14,bubble01Xd98,
15,bubble01dGLP,
16,bubble01RRI3,
17,bubble0136kp,
18,bubble012XJO,
19,bubble01T1oW,
20,bubble01B9Vg,
21,bubble01uH5g,
22,bubble015E2b,
23,bubble01MrQV,
24,bubble01aXo5,
25,bubble01eSLc,
26,bubble01EHAN,
27,bubble01hX06,
28,bubble01t9kb,
29,bubble01V9Vd,
30,bubble01jSvT,
31,bubble01YfiK,
32,bubble01R4KA,
33,bubble01INRV,
34,bubble013tdD,
35,bubble01B5DV,
36,bubble01L3Vz,
37,bubble014zHM,
38,bubble01PODI,
39,bubble01Ffdj,
40,bubble01WM7e,
41,bubble01Oowq,
42,bubble01CM69,
43,bubble01sRWa,
44,bubble01WhxU,
45,bubble01USEE,
46,bubble01jA4w,
47,bubble01pwnj,
48,bubble01trMC,
49,bubble01KSae,
50,bubble01BmYO,
51,bubble01cv0s,
52,bubble01khqj,
53,bubble01fiLY,
54,bubble01A0ho,
55,bubble018t2G,
56,bubble01oVsu,
57,bubble015YGs,
58,bubble01fRzk,
59,bubble01RprW,
60,bubble01txgJ,
61,bubble01ThGA,
62,bubble01VSCs,
63,bubble01rPQK,
64,bubble01f0d8,
65,bubble010DbX,
66,bubble01kLQY,
67,bubble01oYIG,
68,bubble01hmVC,
69,bubble01lQeD,
70,bubble01snxz,
71,bubble01gBek,
72,bubble01YTCo,
73,bubble018rPS,
74,bubble01V2lC,
75,bubble017HcS,
76,bubble01Noxw,
77,bubble011urL,
78,bubble01xnhf,
79,bubble01pmwz,
80,bubble01jQj0,
81,bubble013ijF,
82,bubble01q7ln,
83,bubble01Q89j,
84,bubble019Mu9,
85,bubble01gPrG,
86,bubble016t63,
87,bubble01WCfo,
88,bubble01f3ul,
89,bubble01feqp,
90,bubble01MJkp,
91,bubble0135fX,
92,bubble017G6r,
93,bubble01Wo7q,
94,bubble01NLpJ,
95,bubble01uhSB,
96,bubble01pf1m,
97,bubble01JBNe,
98,bubble01IXCh,
99,bubble01uEN5,
100,bubble010LR1,
101,bubble01uqF3,
102,bubble01ihyX,
103,bubble018Mve,
104,bubble01Duxf,
105,bubble01DtsS,
106,bubble014D2g,
107,bubble01el3f,
108,bubble013vqB,
109,bubble01KVro,
110,bubble01E8F1,
111,bubble0128yp,
112,bubble01mAUM,
113,bubble01au0w,
114,bubble01DCc6,
115,bubble01WroE,
116,bubble014qTe,
117,bubble01sBDp,
118,bubble017oCT,
119,bubble01GKIj,
120,bubble01o20V,
121,bubble01EutW,
122,bubble01iDkH,
123,bubble01zMbx,
124,bubble01biXT,
125,bubble01EA1h,
126,bubble01lVBf,
127,bubble01qoGh,
128,bubble01mVDn,
129,bubble01YO7a,
130,bubble01tRW9,
131,bubble01SXc6,
132,bubble01Terz,
133,bubble01uMtY,
134,bubble01wHUv,
135,bubble01Kh8O,
136,bubble01Kic7,
137,bubble010Grb,
138,bubble01zlYV,
139,bubble01HHr5,
140,bubble018oyD,
141,bubble01uAtB,
142,bubble01Dp5f,
143,bubble01W1fd,
144,bubble01iSvS,
145,bubble01UVWX,
146,bubble01XVOg,
147,bubble01SDyR,
148,bubble01FMVk,
149,bubble01O8eJ,
150,bubble012XJK,
151,bubble01CPka,
152,bubble01OBBf,
153,bubble01m6rS,
154,bubble01a77c,
155,bubble01HSma,
156,bubble01Ljgo,
157,bubble01aFSn,
158,bubble01f7QW,
159,bubble01b3Ir,
160,bubble0140Pc,
161,bubble01tNAy,
162,bubble010mP4,
163,bubble01PYrh,
164,bubble013q1N,
165,bubble01Xsmq,
166,bubble0146h6,
167,bubble01G7vd,
168,bubble01x6Q0,
169,bubble01q9sR,
170,bubble01YkGs,
171,bubble01dJ1V,
172,bubble01z8Ta,
173,bubble0173Uu,
174,bubble01H25j,
175,bubble01iz0i,
176,bubble01uxex,
177,bubble013C06,
178,bubble01ueCs,
179,bubble01rRYk,
180,bubble01Fp43,
181,bubble017qLC,
182,bubble01M4XE,
183,bubble01nTpn,
184,bubble01Fc0q,
185,bubble019tWj,
186,bubble01HzNi,
187,bubble014s67,
188,bubble01iaV9,
189,bubble01Yvxc,
190,bubble01omEb,
191,bubble01Wdeu,
192,bubble01ODHB,
193,bubble01UOka,
194,bubble01STRD,
195,bubble01Dgqk,
196,bubble01nVxS,
197,bubble01Nmr9,
198,bubble01pCSy,
199,bubble01a9gR,
200,bubble01AkTy,
201,bubble012ww2,
202,bubble01BUPn,
203,bubble01pTjQ,
204,bubble01j3ks,
205,bubble01iaWe,
206,bubble01kWL1,
207,bubble01LNG4,
208,bubble01f4AM,
209,bubble019pCT,
210,bubble01ExKb,
211,bubble01CA5F,
212,bubble017yrA,
213,bubble01BiFs,
214,bubble01j9RQ,
215,bubble01GUuH,
216,bubble015hc9,
217,bubble017atS,
218,bubble01YixM,
219,bubble01mtfQ,
220,bubble01uWgu,
221,bubble01FTvO,
222,bubble01AvMn,
223,bubble01zJVw,
224,bubble01NrPO,
225,bubble01BAa3,
226,bubble01LGaL,
227,bubble01klIC,
228,bubble01UL7f,
229,bubble01TNj8,
230,bubble01Ig8Q,
231,bubble01SSMg,
232,bubble01X5vi,
233,bubble01WTFE,
234,bubble01gn8t,
235,bubble012JzH,
236,bubble01MNFW,
237,bubble01LXyR,
238,bubble01FN0B,
239,bubble013r42,
240,bubble01UxW9,
241,bubble01U9Wm,
242,bubble01VDmV,
243,bubble01z4D1,
244,bubble019H6m,
245,bubble01xBpg,
246,bubble014wtO,
247,bubble01GXKT,
248,bubble01fwRO,
249,bubble01sQU3,
250,bubble01tfOn,
251,bubble01pWyU,
252,bubble01UPsL,
253,bubble01t5YF,
254,bubble01o0MW,
255,bubble01n4eW,
256,bubble012lEg,
257,bubble01jLUg,
258,bubble01CkKO,
259,bubble01NBDn,
260,bubble01YN50,
261,bubble01LPTX,
262,bubble01c2BU,
263,bubble01NgTJ,
264,bubble010O4R,
265,bubble01bhSC,
266,bubble01pfW3,
267,bubble01pRae,
268,bubble01FGoU,
269,bubble01rrS5,
270,bubble01OOGW,
271,bubble01IJxv,
272,bubble01T1mM,
273,bubble01QU3s,
274,bubble01cAlY,
275,bubble01UDso,
276,bubble01zIUo,
277,bubble01f4AL,
278,bubble01431X,
279,bubble01M2P3,
280,bubble01MLt6,
281,bubble016azo,
282,bubble01eW6F,
283,bubble0118ys,
284,bubble01BGD8,
285,bubble01KmyG,
286,bubble01LPTW,
287,bubble015xsF,
288,bubble010016,
289,bubble01pMJl,
290,bubble01tlir,
291,bubble01nwuV,
292,bubble01cdqy,
293,bubble01uPEM,
294,bubble01XvFO,
295,bubble0178kf,
296,bubble01gxXb,
297,bubble010skf,
298,bubble01iJOS,
299,bubble01Yhsq,
300,bubble01NIeX,
301,bubble01c2CY,
302,bubble015ubt,
303,bubble01QOAs,
304,bubble01zryq,
305,bubble01uamk,
306,bubble01yMkf,
307,bubble01ftG2,
308,bubble014ha2,
309,bubble01Fipc,
310,bubble01Nnum,
311,bubble01kAX4,
312,bubble01pTfx,
313,bubble011rbz,
314,bubble01kVHJ,
315,bubble01zDuA,
316,bubble01rrUh,
317,bubble01DmUt,
318,bubble01EPdB,
319,bubble01oaEL,
320,bubble01UfuK,
321,bubble01ifjR,
322,bubble01njqb,
323,bubble01Cz2q,
324,bubble0141Uw,
325,bubble01V3uj,
326,bubble013nHq,
327,bubble010JHi,
328,bubble01pbGQ,
329,bubble01gJSh,
330,bubble01HFir,
331,bubble01lnRf,
332,bubble01DtqH,
333,bubble01in1V,
334,bubble01Dn0Q,
335,bubble01fJTl,
336,bubble010000,
337,bubble0114hf,
338,bubble01m4g9,
339,bubble01VgwQ,
340,bubble01HVBf,
341,bubble01pkp6,
342,bubble01fW0b,
343,bubble01T1kE,
344,bubble01gn5h,
345,bubble01c84X,
346,bubble01CfkU,
347,bubble01DsoB,
348,bubble01OkcX,
349,bubble01ejRo,
350,bubble01nGkB,
351,bubble011hmW,
352,bubble01FzOm,
353,bubble01nNS2,
354,bubble01xzhH,
355,bubble01Gisn,
356,bubble01xyab,
357,bubble01rDSu,
358,bubble01QOu1,
359,bubble01DaRS,
360,bubble01PyhG,
361,bubble01C4ta,
362,bubble01oxtL,
363,bubble01pMJh,
364,bubble01dfCl,
365,bubble01SndX,
366,bubble01eerx,
367,bubble01nilO,
368,bubble0178jc,
369,bubble011tow,
370,bubble01sH9D,
371,bubble01KQ2B,
372,bubble01UOmj,
373,bubble01vBuD,
374,bubble01JOPL,
375,bubble01knSj,
376,bubble01UGEc,
377,bubble014IpT,
378,bubble01iLXw,
379,bubble01I36m,
380,bubble01uqCS,
381,bubble01wYnU,
382,bubble01sypn,
383,bubble01E9Lp,
384,bubble01LBIP,
385,bubble011yJ2,
386,bubble01YPeC,
387,bubble01rnww,
388,bubble015OQQ,
389,bubble01GTqs,
390,bubble012LNG,
391,bubble01126s,
392,bubble01Wqf0,
393,bubble01d81I,
394,bubble01vpxr,
395,bubble01EVIM,
396,bubble01MysE,
397,bubble01StG4,
398,bubble01f3wu,
399,bubble01T2r8,
400,bubble01jc5N,
401,bubble01LqQ1,
402,bubble01xEFm,
403,bubble01O1B3,
404,bubble01oP1x,
405,bubble01IXEr,
406,bubble01cHWC,
407,bubble01iA3x,
408,bubble01x6Tb,
409,bubble01csJh,
410,bubble01dfCm,
411,bubble01XJNO,
412,bubble01FUCk,
413,bubble01LR5N,
414,bubble01Jkqb,
415,bubble01Apjl,
416,bubble01MS6P,
417,bubble01TXc4,
418,bubble01Is7e,
419,bubble01Onq2,
420,bubble01Tohd,
421,bubble01drCJ,
422,bubble01Sdni,
423,bubble01kLR5,
424,bubble01LCPg,
425,bubble01Ryci,
426,bubble01TBlU,
427,bubble01Ab88,
428,bubble01h1e5,
429,bubble01LACo,
430,bubble015f1m,
431,bubble01MNFV,
432,bubble01HJAK,
433,bubble010JIp,
434,bubble01Q5PW,
435,bubble01fog9,
436,bubble01VguF,
437,bubble01VDqc,
438,bubble01HWBf,
439,bubble01pjmS,
440,bubble01kYYW,
441,bubble01OhVN,
442,bubble01eLbA,
443,bubble01qkoY,
444,bubble01IHlE,
445,bubble01ecjV,
446,bubble01L55a,
447,bubble01ByYd,
448,bubble0194Vs,
449,bubble01t3MO,
450,bubble01I9Au,
451,bubble01JdQF,
452,bubble01KLAG,
453,bubble01EfiG,
454,bubble01BVTI,
455,bubble01RevT,
456,bubble010jyP,
457,bubble01yiM3,
458,bubble01Tm8z,
459,bubble01vLoC,
460,bubble01XWTC,
461,bubble01qg5z,
462,bubble01GHul,
463,bubble01e7Uf,
464,bubble01tCJP,
465,bubble01Wfnc,
466,bubble01RK9t,
467,bubble01Xo48,
468,bubble01wdtL,
469,bubble01qQXj,
470,bubble01EnSj,
471,bubble01VJTh,
472,bubble01FzPt,
473,bubble01S0kD,
474,bubble01dcla,
475,bubble01LnyE,
476,bubble01Dc6V,
477,bubble01obH0,
478,bubble01Uz6P,
479,bubble01PH37,
480,bubble01rR2A,
481,bubble01QsNB,
482,bubble01CjIE,
483,bubble018H6q,
484,bubble01OQOz,
485,bubble01ncQE,
486,bubble01IFaQ,
487,bubble01NpGe,
488,bubble015JqU,
489,bubble01jO9i,
490,bubble012jtq,
491,bubble01JoLI,
492,bubble01f8S2,
493,bubble01vrIi,
494,bubble01lO4Q,
495,bubble015Q0v,
496,bubble01w867,
497,bubble01h1js,
498,bubble01oCWR,
499,bubble01vWdf,
500,bubble01ClRl,
501,bubble015nFc,
502,bubble012xAo,
503,bubble01cMmt,
504,bubble01gVRy,
505,bubble01cl6v,
506,bubble01eBm2,
507,bubble014eW5,
508,bubble01AGFj,
509,bubble01yPyg,
510,bubble01FBY5,
511,bubble01ufJW,
512,bubble01z1nN,
513,bubble01Vem7,
514,bubble01wgJT,
515,bubble01kWM3,
516,bubble01Toif,
517,bubble01n9Ay,
518,bubble01Yhtw,
519,bubble01ezcg,
520,bubble01IOVe,
521,bubble01oeYh,
522,bubble01qic6,
523,bubble01TgAb,
524,bubble019aqD,
525,bubble01TDvC,
526,bubble01Ba0x,
527,bubble01GQai,
528,bubble01X04n,
529,bubble01IqXA,
530,bubble015EY0,
531,bubble014iiD,
532,bubble01hvH1,
533,bubble01XM51,
534,bubble01RjUE,
535,bubble01zTNj,
536,bubble019NBC,
537,bubble01iEmP,
538,bubble018bsN,
539,bubble01ERnj,
540,bubble01o48v,
541,bubble0162Qc,
542,bubble01qytL,
543,bubble01pInK,
544,bubble01CQno,
545,bubble01PYqd,
546,bubble01LfSG,
547,bubble01O0AW,
548,bubble01Y4nI,
549,bubble01vmhj,
550,bubble01JMIf,
551,bubble017MES,
552,bubble01uLrR,
553,bubble014Hkx,
554,bubble01Kawa,
555,bubble01eGLK,
556,bubble01ueDy,
557,bubble01Pw6W,
558,bubble01rqKu,
559,bubble01eEDe,
560,bubble01dojo,
561,bubble012213,
562,bubble01aH10,
563,bubble01WLYC,
564,bubble01c83Q,
565,bubble019aou,
566,bubble01iY1c,
567,bubble01SSNj,
568,bubble01b0tl,
569,bubble01irmu,
570,bubble01mjvD,
571,bubble01Ftmn,
572,bubble01P5Q2,
573,bubble01BY4p,
574,bubble01OT3w,
575,bubble01x6S8,
576,bubble01YzUQ,
577,bubble01v3Fe,
578,bubble01bduS,
579,bubble01V0c0,
580,bubble01q8pG,
581,bubble01bQHX,
582,bubble01KR5P,
583,bubble01WhvG,
584,bubble01YQhQ,
585,bubble01pyx1,
586,bubble01tmnO,
587,bubble010wCz,
588,bubble010ivC,
589,bubble01A8T7,
590,bubble01QXhs,
591,bubble01t3NQ,
592,bubble01RLh6,
593,bubble01DTAi,
594,bubble01HFd4,
595,bubble01Ir0H,
596,bubble01wuVd,
597,bubble01ey4G,
598,bubble01gftC,
599,bubble01HEc1,
600,bubble01wzhH,
601,bubble01HpWx,
602,bubble01Pznb,
603,bubble01JaEJ,
604,bubble01KAFC,
605,bubble014tap,
606,bubble01AKXA,
607,bubble015CTE,
608,bubble01yOpD,
609,bubble01VOfM,
610,bubble01fQyf,
611,bubble01y2uo,
612,bubble01vlcW,
613,bubble01b2Gj,
614,bubble01uxgF,
615,bubble01yOox,
616,bubble01w3C2,
617,bubble01fa76,
618,bubble017jfh,
619,bubble01HE9O,
620,bubble01DJNM,
621,bubble01wfHM,
622,bubble01QSQC,
623,bubble01yUUR,
624,bubble01yesC,
625,bubble01JQ2B,
626,bubble01VSCs,
627,bubble01pInK,
628,bubble01DWQq,
629,bubble01yvTY,
630,bubble01gjM1,
631,bubble01KHf8,
632,bubble01WlRm,
633,bubble01aKic,
634,bubble018657,
635,bubble01jgn7,
636,bubble01rR1u,
637,bubble01pBM6,
638,bubble01bzl1,
639,bubble013dUY,
640,bubble01bU4z,
641,bubble01IP4Q,
642,bubble012D5x,
643,bubble01sH6p,
644,bubble01KxtL,
645,bubble01rS6R,
646,bubble014Js5,
647,bubble013211,
648,bubble0127sY,
649,bubble01yQzk,
650,bubble01UCmX,
651,bubble01IIuf,
652,bubble01Ni3m,
653,bubble01GnOX,
654,bubble01n20V,
655,bubble01Evzm,
656,bubble016qQY,
657,bubble01nXEr,
658,bubble01dMg0,
659,bubble01c0nV,
660,bubble01z1q4,
661,bubble014aBy,
662,bubble01Yhoa,
663,bubble01CFvu,
664,bubble01WkKO,
665,bubble01QOxf,
666,bubble01DqdN,
667,bubble01mr9n,
668,bubble01sauX,
669,bubble01lRiU,
670,bubble01EyOp,
671,bubble01BPnm,
672,bubble01Hsas,
673,bubble01NDM2,
674,bubble01OYsn,
675,bubble01vqzE,
676,bubble01wDGu,
677,bubble01nsaq,
678,bubble01F7wj,
679,bubble0117zu,
680,bubble01JeV1,
681,bubble01hn1Y,
682,bubble01Qmd2,
683,bubble01xAkU,
684,bubble01y5Hk,
685,bubble01wEJG,
686,bubble01geoh,
687,bubble01eiOf,
688,bubble01L59t,
689,bubble01UdkY,
690,bubble01WPlb,
691,bubble01U1lG,
692,bubble01oVtz,
693,bubble01szuI,
694,bubble01bI6l,
695,bubble01p2YL,
696,bubble01UjN6,
697,bubble016cFN,
698,bubble012JBQ,
699,bubble01sIdU,
700,bubble01VY5v,
701,bubble01hSyc,
702,bubble01jXSx,
703,bubble012yHR,
704,bubble01duPG,
705,bubble01XLYB,
706,bubble017He1,
707,bubble01p0MU,
708,bubble01ftDO,
709,bubble01aos8,
710,bubble01j9NB,
711,bubble01CiB9,
712,bubble01Ub9e,
713,bubble01HO0z,
714,bubble01PuWg,
715,bubble01vLia,
716,bubble01XkIG,
717,bubble01e90A,
718,bubble01W2gg,
719,bubble01yW7J,
720,bubble01lusQ,
721,bubble01QHXJ,
722,bubble01ORSR,
723,bubble01GQbm,
724,bubble01fbag,
725,bubble01OkaS,
726,bubble01TSJ1,
727,bubble01RjXU,
728,bubble01EzUQ,
729,bubble01xbfI,
730,bubble01Rbk5,
731,bubble01qUiK,
732,bubble01R5OT,
733,bubble011mNW,
734,bubble01kN4T,
735,bubble01m3cQ,
736,bubble01FQcq,
737,bubble01AGDa,
738,bubble01RTUR,
739,bubble01BroE,
740,bubble018FYV,
741,bubble01IOWg,
742,bubble01tDJM,
743,bubble01KnD4,
744,bubble01r0Iy,
745,bubble01GKIn,
746,bubble01Is9l,
747,bubble01jvEJ,
748,bubble01LBL0,
749,bubble01JHim,
750,bubble01XHGi,
751,bubble01sqIl,
752,bubble01xHVx,
753,bubble01V1ju,
754,bubble01wbj1,
755,bubble01aMtY,
756,bubble01ttYt,
757,bubble01rNIa,
758,bubble01H0Ss,
759,bubble01CKVq,
760,bubble01ifjP,
761,bubble01fL7f,
762,bubble01VVRw,
763,bubble011wAo,
764,bubble01eV2n,
765,bubble01KHdX,
766,bubble01dcnf,
767,bubble017R2v,
768,bubble01uVej,
769,bubble01QonI,
770,bubble01tfNj,
771,bubble019Mwh,
772,bubble01M7eN,
773,bubble01jc4J,
774,bubble01vi09,
775,bubble01H5ie,
776,bubble01hHIw,
777,bubble01qAFz,
778,bubble01SJ0L,
779,bubble01UhDm,
780,bubble01UtDO,
781,bubble018eJ4,
782,bubble0149xi,
783,bubble01RsId,
784,bubble01W4xt,
785,bubble01JjlL,
786,bubble01R0p2,
787,bubble010QiW,
788,bubble01Szer,
789,bubble01wk19,
790,bubble01I8v7,
791,bubble017fTM,
792,bubble01eMeQ,
793,bubble01w83T,
794,bubble01l3cP,
795,bubble01Art2,
796,bubble01KF8B,
797,bubble01Esnv,
798,bubble01pxsF,
799,bubble0129DK,
800,bubble01PYoY,
801,bubble01N4Vr,
802,bubble01rUfs,
803,bubble01Ay0o,
804,bubble01WBa0,
805,bubble01vyhJ,
806,bubble01Q5PW,
807,bubble01fnaJ,
808,bubble019xfD,
809,bubble01trNG,
810,bubble014f2t,
811,bubble01hX1c,
812,bubble01TX6A,
813,bubble01GEea,
814,bubble01ald2,
815,bubble01yISj,
816,bubble01UFAW,
817,bubble011fdh,
818,bubble01KXz0,
819,bubble01gjM1,
820,bubble01HseL,
821,bubble01dHTp,
822,bubble01mxFI,
823,bubble01D05r,
824,bubble01XuAt,
825,bubble01BBgu,
826,bubble01FRk5,
827,bubble01s0Eg,
828,bubble01m4cQ,
829,bubble01DFtj,
830,bubble01bYnW,
831,bubble01A9Xn,
832,bubble01238x,
833,bubble01kY00,
834,bubble0116sY,
835,bubble01xKbE,
836,bubble01IGhj,
837,bubble01IEbV,
838,bubble019U8W,
839,bubble01lUxX,
840,bubble01b3Hl,
841,bubble01Fhqj,
842,bubble01hrqO,
843,bubble01OFRk,
844,bubble012aMr,
845,bubble01RYlL,
846,bubble01R0q6,
847,bubble01fWY7,
848,bubble01BGC3,
849,bubble01nNPN,
850,bubble01xjVI,
851,bubble01Q3KA,
852,bubble01JSew,
853,bubble01V5DY,
854,bubble0103f5,
855,bubble01Iktr,
856,bubble01NH6q,
857,bubble01NKoI,
858,bubble01pR84,
859,bubble01UrqP,
860,bubble01V8RW,
861,bubble01c7Xw,
862,bubble01I339,
863,bubble01zpnF,
864,bubble01c2xB,
865,bubble01rpGe,
866,bubble014F8H,
867,bubble016mzL,
868,bubble018oyD,
869,bubble01xJ8o,
870,bubble01CWRw,
871,bubble011wAo,
872,bubble01eVY9,
873,bubble01Mu61,
874,bubble01MVjL,
875,bubble01VlXL,
876,bubble01YzYb,
877,bubble01XhxO,
878,bubble01xfAc,
879,bubble01hM69,
880,bubble01qJoK,
881,bubble01CRtL,
882,bubble01rVkO,
883,bubble019fQu,
884,bubble01T3ww,
885,bubble011vuY,
886,bubble01qePw,
887,bubble0173Q9,
888,bubble01aosa,
889,bubble01rKrV,
890,bubble01m1XQ,
891,bubble01j3jp,
892,bubble016kiw,
893,bubble01LgYa,
894,bubble01QOu4,
895,bubble01OWhz,
896,bubble013yAl,
897,bubble01TwTW,
898,bubble012mHt,
899,bubble01fPrJ,
900,bubble01kske,
901,bubble01beDw,
902,bubble01GTqq,
903,bubble01QYmQ,
904,bubble01duOD,
905,bubble01IJui,
906,bubble01XWTC,
907,bubble01qf1j,
908,bubble01vBwO,
909,bubble01xex3,
910,bubble01E5vg,
911,bubble01NgSF,
912,bubble01GtgW,
913,bubble01WTGI,
914,bubble01xAkR,
915,bubble01njp9,
916,bubble01waeF,
917,bubble01Gq59,
918,bubble01u0wE,
919,bubble01JIpR,
920,bubble01851Q,
921,bubble01fEyM,
922,bubble01kfet,
923,bubble01FXM2,
924,bubble01Q867,
925,bubble01h2nK,
926,bubble01E04m,
927,bubble01zPrI,
928,bubble01kq9s,
929,bubble01Ub9e,
930,bubble01ITnd,
931,bubble01TSIY,
932,bubble01KOPL,
933,bubble01jiwL,
934,bubble01h6G7,
935,bubble01xokt,
936,bubble01pDWP,
937,bubble01nmHt,
938,bubble01dFKJ,
939,bubble01s53X,
940,bubble01JLF4,
941,bubble01lurK,
942,bubble01t644,
943,bubble017nwy,
944,bubble01abrE,
945,bubble01XQnl,
946,bubble01BY8I,
947,bubble01eXaW,
948,bubble01grt4,
949,bubble01RafI,
950,bubble01SfBh,
951,bubble01Cgst,
952,bubble013NT7,
953,bubble01QU3w,
954,bubble01rG5l,
955,bubble01wyfx,
956,bubble01YhuA,
957,bubble01vJdR,
958,bubble01GQey,
959,bubble0181Fj,
960,bubble01yRHU,
961,bubble01swiU,
962,bubble01JShH,
963,bubble01Jyzd,
964,bubble01l6s1,
965,bubble01IzFG,
966,bubble01oTkX,
967,bubble01Rqwl,
968,bubble01aNv8,
969,bubble01arIg,
970,bubble0190zS,
971,bubble01HP87,
972,bubble01dGRg,
973,bubble01GFjx,
974,bubble01Mkit,
975,bubble01v9cw,
976,bubble013Gju,
977,bubble01wbl9,
978,bubble01KjjB,
979,bubble016Ijq,
980,bubble01bEKN,
981,bubble01Mu89,
982,bubble01ovot,
983,bubble01aqE1,
984,bubble017xok,
985,bubble01skhn,
986,bubble015jiz,
987,bubble011jwI,
988,bubble010Rk3,
989,bubble01hhxQ,
990,bubble01HVz5,
991,bubble01Hgcd,
992,bubble01vSSO,
993,bubble01qHe3,
994,bubble01zITl,
995,bubble0114ii,
996,bubble01z0iu,
997,bubble01zoga,
998,bubble012GkC,
999,bubble018KqP,
1000,bubble01U5F6,